2010-03-26 16:48:56 Warning: Warning (2): mysql_query() [<a href='http://php.net/function.mysql-query'>function.mysql-query</a>]: Unable to save result set in [APP/views/ergo_rufrs/myrumtrain.ctp, line 27]
2010-03-26 16:48:57 Warning: Warning (2): mysql_num_rows(): supplied argument is not a valid MySQL result resource in [APP/views/ergo_rufrs/myrumtrain.ctp, line 31]
2010-03-26 16:48:57 Warning: Warning (2): touch() [<a href='http://php.net/function.touch'>function.touch</a>]: Unable to create file /var/www/ergolang/cake/app/tmp/cache/persistent/cake_core_core_paths because No such file or directory in [/home/radeff/soft/cake/cake_1.2.5/cake/libs/file.php, line 130]
2010-03-26 16:49:04 Warning: Warning (2): mysql_num_rows(): supplied argument is not a valid MySQL result resource in [APP/views/ergo_rufrs/rumtrain.ctp, line 88]
2010-03-26 16:49:04 Warning: Warning (2): mysql_result(): supplied argument is not a valid MySQL result resource in [APP/views/ergo_rufrs/rumtrain.ctp, line 92]
2010-03-26 16:49:04 Warning: Warning (2): mysql_result(): supplied argument is not a valid MySQL result resource in [APP/views/ergo_rufrs/rumtrain.ctp, line 93]
2010-03-26 16:49:09 Warning: Warning (2): mysql_connect() [<a href='http://php.net/function.mysql-connect'>function.mysql-connect</a>]: Can't connect to local MySQL server through socket '/var/run/mysqld/mysqld.sock' (2) in [/home/radeff/soft/cake/cake_1.2.5/cake/libs/model/datasources/dbo/dbo_mysql.php, line 374]
2010-03-26 16:49:09 Warning: Warning (2): mysql_select_db(): supplied argument is not a valid MySQL-Link resource in [/home/radeff/soft/cake/cake_1.2.5/cake/libs/model/datasources/dbo/dbo_mysql.php, line 379]
2010-03-26 16:49:09 Warning: Warning (2): mysql_query(): supplied argument is not a valid MySQL-Link resource in [/home/radeff/soft/cake/cake_1.2.5/cake/libs/model/datasources/dbo/dbo_mysql.php, line 411]
2010-03-26 16:49:09 Warning: Warning (2): mysql_get_server_info(): supplied argument is not a valid MySQL-Link resource in [/home/radeff/soft/cake/cake_1.2.5/cake/libs/model/datasources/dbo/dbo_mysql.php, line 387]
2010-03-27 16:28:01 Warning: Warning (512): <span style = "color:Red;text-align:left"><b>SQL Error:</b> 1064: You have an error in your SQL syntax; check the manual that corresponds to your MySQL server version for the right syntax to use near 'populate' at line 1</span> in [CORE/cake/libs/model/datasources/dbo_source.php, line 525]
2010-03-29 05:47:23 Warning: Warning (2): Cannot modify header information - headers already sent by (output started at /usr/share/php/cake/basics.php:111) in [CORE/cake/libs/controller/controller.php, line 640]
2010-03-29 05:48:01 Warning: Warning (2): Cannot modify header information - headers already sent by (output started at /usr/share/php/cake/basics.php:111) in [CORE/cake/libs/controller/controller.php, line 640]
2010-03-29 05:57:06 Warning: Warning (2): Wrong parameter count for mysql_result() in [APP/controllers/users_controller.php, line 150]
2010-03-29 05:57:56 Warning: Warning (2): Wrong parameter count for mysql_result() in [APP/controllers/users_controller.php, line 150]
2010-03-29 05:57:57 Warning: Warning (2): Wrong parameter count for mysql_result() in [APP/controllers/users_controller.php, line 150]
2010-03-29 05:58:43 Warning: Warning (2): Wrong parameter count for mysql_result() in [APP/controllers/users_controller.php, line 150]
2010-03-29 05:59:44 Warning: Warning (2): Wrong parameter count for mysql_result() in [APP/controllers/users_controller.php, line 150]
2010-03-29 06:03:17 Warning: Warning (2): Wrong parameter count for mysql_result() in [APP/controllers/users_controller.php, line 150]
2010-03-29 06:03:23 Warning: Warning (2): Wrong parameter count for mysql_result() in [APP/controllers/users_controller.php, line 150]
2010-03-29 06:03:48 Warning: Warning (2): Wrong parameter count for mysql_result() in [APP/controllers/users_controller.php, line 151]
2010-03-29 17:22:50 Warning: Warning (2): mysql_num_rows(): supplied argument is not a valid MySQL result resource in [APP/views/ergo_links/index.ctp, line 42]
2010-03-29 17:35:38 Warning: Warning (2): mysql_num_rows(): supplied argument is not a valid MySQL result resource in [APP/views/ergo_links/index.ctp, line 42]
2010-03-29 17:35:46 Warning: Warning (2): mysql_num_rows(): supplied argument is not a valid MySQL result resource in [APP/views/ergo_links/index.ctp, line 42]
2010-03-29 17:35:52 Warning: Warning (2): mysql_num_rows(): supplied argument is not a valid MySQL result resource in [APP/views/ergo_links/index.ctp, line 42]
2010-03-29 17:50:53 Warning: Warning (512): <span style = "color:Red;text-align:left"><b>SQL Error:</b> 1054: Unknown column 'ErgoLink.ergo_link_cat_id' in 'where clause'</span> in [/home/radeff/soft/cake/cake/libs/model/datasources/dbo_source.php, line 527]
2010-03-29 17:50:53 Warning: Warning (2): Invalid argument supplied for foreach() in [APP/views/ergo_links/index.ctp, line 93]
2010-03-29 17:53:50 Warning: Warning (512): <span style = "color:Red;text-align:left"><b>SQL Error:</b> 1054: Unknown column 'Tag.id' in 'where clause'</span> in [/home/radeff/soft/cake/cake/libs/model/datasources/dbo_source.php, line 527]
2010-03-29 17:53:50 Warning: Warning (2): Invalid argument supplied for foreach() in [APP/views/ergo_links/index.ctp, line 93]
2010-03-29 17:56:47 Warning: Warning (512): <span style = "color:Red;text-align:left"><b>SQL Error:</b> 1054: Unknown column 'ergo_links_tags.tag_id' in 'where clause'</span> in [/home/radeff/soft/cake/cake/libs/model/datasources/dbo_source.php, line 527]
2010-03-29 17:56:47 Warning: Warning (2): Invalid argument supplied for foreach() in [APP/views/ergo_links/index.ctp, line 93]
2010-03-29 17:59:03 Warning: Warning (512): <span style = "color:Red;text-align:left"><b>SQL Error:</b> 1064: You have an error in your SQL syntax; check the manual that corresponds to your MySQL server version for the right syntax to use near 'JOIN ergo_links_tags ON (`ergo_links_tags`.`tag_id` LIKE '6')' at line 1</span> in [/home/radeff/soft/cake/cake/libs/model/datasources/dbo_source.php, line 527]
2010-03-29 17:59:03 Warning: Warning (512): <span style = "color:Red;text-align:left"><b>SQL Error:</b> 1064: You have an error in your SQL syntax; check the manual that corresponds to your MySQL server version for the right syntax to use near 'JOIN ergo_links_tags ON (`ergo_links_tags`.`tag_id` LIKE '6')   ORDER BY `ErgoLi' at line 1</span> in [/home/radeff/soft/cake/cake/libs/model/datasources/dbo_source.php, line 527]
2010-03-29 17:59:03 Warning: Warning (2): Invalid argument supplied for foreach() in [APP/views/ergo_links/index.ctp, line 93]
2010-03-29 18:37:08 Warning: Warning (512): <span style = "color:Red;text-align:left"><b>SQL Error:</b> 1054: Unknown column 'ergo_links.ergo_link_cat_id' in 'where clause'</span> in [/home/radeff/soft/cake/cake/libs/model/datasources/dbo_source.php, line 527]
2010-03-29 18:37:08 Warning: Warning (512): <span style = "color:Red;text-align:left"><b>SQL Error:</b> 1064: You have an error in your SQL syntax; check the manual that corresponds to your MySQL server version for the right syntax to use near 'ORDER BY `ErgoLink`.`lib` asc  LIMIT 25' at line 1</span> in [/home/radeff/soft/cake/cake/libs/model/datasources/dbo_source.php, line 527]
2010-03-29 18:37:08 Warning: Warning (2): Invalid argument supplied for foreach() in [APP/views/ergo_links/index.ctp, line 93]
2010-03-29 21:21:16 Warning: Warning (512): <span style = "color:Red;text-align:left"><b>SQL Error:</b> 1054: Unknown column 'ergo_links.ergo_link_cat_id' in 'where clause'</span> in [/home/radeff/soft/cake/cake/libs/model/datasources/dbo_source.php, line 527]
2010-03-29 21:21:16 Warning: Warning (512): <span style = "color:Red;text-align:left"><b>SQL Error:</b> 1064: You have an error in your SQL syntax; check the manual that corresponds to your MySQL server version for the right syntax to use near 'ORDER BY `ErgoLink`.`lib` asc  LIMIT 25' at line 1</span> in [/home/radeff/soft/cake/cake/libs/model/datasources/dbo_source.php, line 527]
2010-03-29 21:21:16 Warning: Warning (2): Invalid argument supplied for foreach() in [APP/views/ergo_links/index.ctp, line 93]
2010-03-29 22:04:49 Warning: Warning (512): <span style = "color:Red;text-align:left"><b>SQL Error:</b> 1054: Unknown column 'ergo_links.ergo_link_cat_id' in 'where clause'</span> in [/home/radeff/soft/cake/cake/libs/model/datasources/dbo_source.php, line 527]
2010-03-29 22:04:50 Warning: Warning (512): <span style = "color:Red;text-align:left"><b>SQL Error:</b> 1064: You have an error in your SQL syntax; check the manual that corresponds to your MySQL server version for the right syntax to use near 'ORDER BY `ErgoLink`.`lib` asc  LIMIT 25' at line 1</span> in [/home/radeff/soft/cake/cake/libs/model/datasources/dbo_source.php, line 527]
2010-03-29 22:04:50 Warning: Warning (2): Invalid argument supplied for foreach() in [APP/views/ergo_links/index.ctp, line 93]
2010-03-29 22:17:03 Warning: Warning (512): Controller::paginate() - can't find model Resource id #159 in controller ErgoLinksController in [/home/radeff/soft/cake/cake/libs/controller/controller.php, line 982]
2010-03-29 22:20:01 Warning: Warning (512): Controller::paginate() - can't find model Resource id #160 in controller ErgoLinksController in [/home/radeff/soft/cake/cake/libs/controller/controller.php, line 982]
2010-03-29 22:48:26 Warning: Warning (2): mysql_fetch_assoc(): supplied argument is not a valid MySQL result resource in [APP/views/ergo_links/tags.ctp, line 21]
2010-03-29 22:48:26 Warning: Warning (2): mysql_fetch_assoc(): supplied argument is not a valid MySQL result resource in [APP/views/ergo_links/tags.ctp, line 46]
2010-03-29 22:48:52 Warning: Warning (2): mysql_fetch_assoc(): supplied argument is not a valid MySQL result resource in [APP/views/ergo_links/tags.ctp, line 21]
2010-03-29 22:48:52 Warning: Warning (2): mysql_fetch_assoc(): supplied argument is not a valid MySQL result resource in [APP/views/ergo_links/tags.ctp, line 46]
2010-03-29 22:52:43 Warning: Warning (2): mysql_fetch_assoc(): supplied argument is not a valid MySQL result resource in [APP/views/ergo_links/tags.ctp, line 46]
2010-03-29 22:54:06 Warning: Warning (2): mysql_fetch_assoc(): supplied argument is not a valid MySQL result resource in [APP/views/ergo_links/tags.ctp, line 46]
2010-03-29 22:54:52 Warning: Warning (2): mysql_fetch_assoc(): supplied argument is not a valid MySQL result resource in [APP/views/ergo_links/tags.ctp, line 46]
2010-03-29 22:56:30 Warning: Warning (2): mysql_fetch_assoc(): supplied argument is not a valid MySQL result resource in [APP/views/ergo_links/tags.ctp, line 47]
2010-03-29 22:58:12 Warning: Warning (2): mysql_fetch_assoc(): supplied argument is not a valid MySQL result resource in [APP/views/ergo_links/tags.ctp, line 47]
2010-03-29 22:59:16 Warning: Warning (2): mysql_fetch_assoc(): supplied argument is not a valid MySQL result resource in [APP/views/ergo_links/tags.ctp, line 48]
2010-03-29 23:01:34 Warning: Warning (2): mysql_fetch_assoc(): supplied argument is not a valid MySQL result resource in [APP/views/ergo_links/tags.ctp, line 21]
2010-03-29 23:01:34 Warning: Warning (2): mysql_fetch_assoc(): supplied argument is not a valid MySQL result resource in [APP/views/ergo_links/tags.ctp, line 48]
2010-03-29 23:02:51 Warning: Warning (2): mysql_fetch_assoc(): supplied argument is not a valid MySQL result resource in [APP/views/ergo_links/tags.ctp, line 21]
2010-03-29 23:02:51 Warning: Warning (2): mysql_fetch_assoc(): supplied argument is not a valid MySQL result resource in [APP/views/ergo_links/tags.ctp, line 48]
2010-03-30 14:42:26 Warning: Warning (2): mysql_fetch_assoc(): supplied argument is not a valid MySQL result resource in [APP/views/ergo_links/tags.ctp, line 124]
2010-03-30 14:43:15 Warning: Warning (2): mysql_fetch_assoc(): supplied argument is not a valid MySQL result resource in [APP/views/ergo_links/tags.ctp, line 78]
2010-03-30 14:51:54 Warning: Warning (512): <span style = "color:Red;text-align:left"><b>SQL Error:</b> 1054: Unknown column 'ErgoLink.ergo_link_cat_id' in 'where clause'</span> in [/home/radeff/soft/cake/cake/libs/model/datasources/dbo_source.php, line 527]
2010-03-30 14:51:54 Warning: Warning (2): Invalid argument supplied for foreach() in [APP/views/ergo_links/index.ctp, line 93]
2010-03-30 14:55:43 Warning: Warning (2): mysql_fetch_assoc(): supplied argument is not a valid MySQL result resource in [APP/views/ergo_links/tags.ctp, line 97]
2010-03-30 14:55:43 Warning: Warning (2): mysql_fetch_assoc(): supplied argument is not a valid MySQL result resource in [APP/views/ergo_links/tags.ctp, line 138]
2010-03-30 14:57:32 Warning: Warning (2): mysql_fetch_assoc(): supplied argument is not a valid MySQL result resource in [APP/views/ergo_links/tags.ctp, line 101]
2010-03-30 14:57:32 Warning: Warning (2): mysql_fetch_assoc(): supplied argument is not a valid MySQL result resource in [APP/views/ergo_links/tags.ctp, line 142]
2010-03-30 14:58:41 Warning: Warning (2): mysql_fetch_assoc(): supplied argument is not a valid MySQL result resource in [APP/views/ergo_links/tags.ctp, line 102]
2010-03-30 14:58:41 Warning: Warning (2): mysql_fetch_assoc(): supplied argument is not a valid MySQL result resource in [APP/views/ergo_links/tags.ctp, line 143]
2010-03-30 15:07:36 Warning: Warning (2): mysql_fetch_assoc(): supplied argument is not a valid MySQL result resource in [APP/views/ergo_links/tags.ctp, line 107]
2010-03-30 15:07:36 Warning: Warning (2): mysql_fetch_assoc(): supplied argument is not a valid MySQL result resource in [APP/views/ergo_links/tags.ctp, line 148]
2010-03-30 15:09:22 Warning: Warning (2): mysql_fetch_assoc(): supplied argument is not a valid MySQL result resource in [APP/views/ergo_links/tags.ctp, line 107]
2010-03-30 15:09:22 Warning: Warning (2): mysql_fetch_assoc(): supplied argument is not a valid MySQL result resource in [APP/views/ergo_links/tags.ctp, line 148]
2010-03-30 15:09:31 Warning: Warning (2): mysql_fetch_assoc(): supplied argument is not a valid MySQL result resource in [APP/views/ergo_links/tags.ctp, line 107]
2010-03-30 15:09:31 Warning: Warning (2): mysql_fetch_assoc(): supplied argument is not a valid MySQL result resource in [APP/views/ergo_links/tags.ctp, line 148]
2010-03-30 15:11:50 Warning: Warning (2): mysql_fetch_assoc(): supplied argument is not a valid MySQL result resource in [APP/views/ergo_links/tags.ctp, line 107]
2010-03-30 15:11:50 Warning: Warning (2): mysql_fetch_assoc(): supplied argument is not a valid MySQL result resource in [APP/views/ergo_links/tags.ctp, line 148]
2010-04-01 10:57:44 Warning: Warning (2): eregi() [<a href='http://php.net/function.eregi'>function.eregi</a>]: REG_EPAREN in [APP/views/ergo_en_phrases/analyse.ctp, line 445]
2010-04-01 10:57:45 Warning: Warning (2): eregi() [<a href='http://php.net/function.eregi'>function.eregi</a>]: REG_EPAREN in [APP/views/ergo_en_phrases/analyse.ctp, line 465]
2010-04-01 10:58:07 Warning: Warning (2): eregi() [<a href='http://php.net/function.eregi'>function.eregi</a>]: REG_EBRACK in [APP/views/ergo_en_phrases/analyse.ctp, line 445]
2010-04-01 10:58:07 Warning: Warning (2): eregi() [<a href='http://php.net/function.eregi'>function.eregi</a>]: REG_EBRACK in [APP/views/ergo_en_phrases/analyse.ctp, line 465]
2010-04-01 11:18:58 Warning: Warning (2): eregi() [<a href='http://php.net/function.eregi'>function.eregi</a>]: REG_EPAREN in [APP/views/ergo_en_phrases/analyse.ctp, line 179]
2010-04-01 11:18:58 Warning: Warning (2): eregi() [<a href='http://php.net/function.eregi'>function.eregi</a>]: REG_EPAREN in [APP/views/ergo_en_phrases/analyse.ctp, line 199]
2010-04-01 11:20:22 Warning: Warning (2): eregi() [<a href='http://php.net/function.eregi'>function.eregi</a>]: REG_EPAREN in [APP/views/ergo_en_phrases/analyse.ctp, line 179]
2010-04-01 11:20:22 Warning: Warning (2): eregi() [<a href='http://php.net/function.eregi'>function.eregi</a>]: REG_EPAREN in [APP/views/ergo_en_phrases/analyse.ctp, line 199]
2010-04-01 11:56:06 Warning: Warning (2): Cannot modify header information - headers already sent by (output started at /var/www/ergolang/cake/app/controllers/ergo_enfrs_controller.php:145) in [APP/views/layouts/ajax.ctp, line 14]
2010-04-01 11:56:10 Warning: Warning (2): Cannot modify header information - headers already sent by (output started at /var/www/ergolang/cake/app/controllers/ergo_enfrs_controller.php:145) in [APP/views/layouts/ajax.ctp, line 14]
2010-04-01 11:56:15 Warning: Warning (2): Cannot modify header information - headers already sent by (output started at /var/www/ergolang/cake/app/controllers/ergo_enfrs_controller.php:145) in [APP/views/layouts/ajax.ctp, line 14]
2010-04-01 11:56:16 Warning: Warning (2): Cannot modify header information - headers already sent by (output started at /var/www/ergolang/cake/app/controllers/ergo_enfrs_controller.php:145) in [APP/views/layouts/ajax.ctp, line 14]
2010-04-01 11:56:19 Warning: Warning (2): Cannot modify header information - headers already sent by (output started at /var/www/ergolang/cake/app/controllers/ergo_enfrs_controller.php:145) in [APP/views/layouts/ajax.ctp, line 14]
2010-04-01 11:58:35 Warning: Warning (2): Cannot modify header information - headers already sent by (output started at /var/www/ergolang/cake/app/controllers/ergo_enfrs_controller.php:145) in [APP/views/layouts/ajax.ctp, line 14]
2010-04-01 11:58:40 Warning: Warning (2): Cannot modify header information - headers already sent by (output started at /var/www/ergolang/cake/app/controllers/ergo_enfrs_controller.php:145) in [APP/views/layouts/ajax.ctp, line 14]
2010-04-01 11:58:45 Warning: Warning (2): Cannot modify header information - headers already sent by (output started at /var/www/ergolang/cake/app/controllers/ergo_enfrs_controller.php:145) in [APP/views/layouts/ajax.ctp, line 14]
2010-04-01 12:00:03 Warning: Warning (2): Cannot modify header information - headers already sent by (output started at /var/www/ergolang/cake/app/controllers/ergo_enfrs_controller.php:145) in [APP/views/layouts/ajax.ctp, line 14]
2010-04-01 12:00:09 Warning: Warning (2): Cannot modify header information - headers already sent by (output started at /var/www/ergolang/cake/app/controllers/ergo_enfrs_controller.php:145) in [APP/views/layouts/ajax.ctp, line 14]
2010-04-01 12:02:47 Warning: Warning (2): Cannot modify header information - headers already sent by (output started at /var/www/ergolang/cake/app/controllers/ergo_enfrs_controller.php:145) in [APP/views/layouts/ajax.ctp, line 14]
2010-04-01 12:02:49 Warning: Warning (2): Cannot modify header information - headers already sent by (output started at /var/www/ergolang/cake/app/controllers/ergo_enfrs_controller.php:145) in [APP/views/layouts/ajax.ctp, line 14]
2010-04-01 12:03:21 Warning: Warning (2): Cannot modify header information - headers already sent by (output started at /var/www/ergolang/cake/app/controllers/ergo_enfrs_controller.php:145) in [APP/views/layouts/ajax.ctp, line 14]
2010-04-01 12:03:25 Warning: Warning (2): Cannot modify header information - headers already sent by (output started at /var/www/ergolang/cake/app/controllers/ergo_enfrs_controller.php:145) in [APP/views/layouts/ajax.ctp, line 14]
2010-04-01 12:03:47 Warning: Warning (2): Cannot modify header information - headers already sent by (output started at /var/www/ergolang/cake/app/controllers/ergo_enfrs_controller.php:145) in [APP/views/layouts/ajax.ctp, line 14]
2010-04-01 12:03:50 Warning: Warning (2): Cannot modify header information - headers already sent by (output started at /var/www/ergolang/cake/app/controllers/ergo_enfrs_controller.php:145) in [APP/views/layouts/ajax.ctp, line 14]
2010-04-01 12:05:00 Warning: Warning (2): Cannot modify header information - headers already sent by (output started at /var/www/ergolang/cake/app/controllers/ergo_enfrs_controller.php:145) in [APP/views/layouts/ajax.ctp, line 14]
2010-04-01 12:05:50 Warning: Warning (2): Cannot modify header information - headers already sent by (output started at /var/www/ergolang/cake/app/controllers/ergo_enfrs_controller.php:145) in [APP/views/layouts/ajax.ctp, line 14]
2010-04-01 12:05:52 Warning: Warning (2): Cannot modify header information - headers already sent by (output started at /var/www/ergolang/cake/app/controllers/ergo_enfrs_controller.php:145) in [APP/views/layouts/ajax.ctp, line 14]
2010-04-01 12:06:24 Warning: Warning (2): Cannot modify header information - headers already sent by (output started at /var/www/ergolang/cake/app/controllers/ergo_enfrs_controller.php:145) in [APP/views/layouts/ajax.ctp, line 14]
2010-04-01 12:10:10 Warning: Warning (2): Cannot modify header information - headers already sent by (output started at /home/radeff/soft/cake/cake/basics.php:106) in [APP/views/layouts/ajax.ctp, line 14]
2010-04-01 12:10:15 Warning: Warning (2): Cannot modify header information - headers already sent by (output started at /home/radeff/soft/cake/cake/basics.php:106) in [APP/views/layouts/ajax.ctp, line 14]
2010-04-01 12:10:17 Warning: Warning (2): Cannot modify header information - headers already sent by (output started at /home/radeff/soft/cake/cake/basics.php:106) in [APP/views/layouts/ajax.ctp, line 14]
2010-04-01 12:11:32 Warning: Warning (2): Cannot modify header information - headers already sent by (output started at /home/radeff/soft/cake/cake/basics.php:106) in [APP/views/layouts/ajax.ctp, line 14]
2010-04-01 12:11:52 Warning: Warning (2): Cannot modify header information - headers already sent by (output started at /home/radeff/soft/cake/cake/basics.php:106) in [APP/views/layouts/ajax.ctp, line 14]
2010-04-01 12:17:51 Warning: Warning (512): <span style = "color:Red;text-align:left"><b>SQL Error:</b> 1054: Unknown column 'ErgoEnfr' in 'where clause'</span> in [/home/radeff/soft/cake/cake/libs/model/datasources/dbo_source.php, line 527]
2010-04-01 12:17:51 Warning: Warning (2): Invalid argument supplied for foreach() in [APP/views/ergo_enfrs/index.ctp, line 54]
2010-04-01 12:17:51 Warning: Warning (512): <span style = "color:Red;text-align:left"><b>SQL Error:</b> 1054: Unknown column 'ErgoEnfr' in 'where clause'</span> in [/home/radeff/soft/cake/cake/libs/model/datasources/dbo_source.php, line 527]
2010-04-01 12:17:51 Warning: Warning (2): Invalid argument supplied for foreach() in [APP/views/ergo_enfrs/index.ctp, line 54]
2010-04-01 12:18:08 Warning: Warning (512): <span style = "color:Red;text-align:left"><b>SQL Error:</b> 1054: Unknown column 'ErgoEnfr' in 'where clause'</span> in [/home/radeff/soft/cake/cake/libs/model/datasources/dbo_source.php, line 527]
2010-04-01 12:18:08 Warning: Warning (2): Invalid argument supplied for foreach() in [APP/views/ergo_enfrs/index.ctp, line 54]
2010-04-01 12:18:09 Warning: Warning (512): <span style = "color:Red;text-align:left"><b>SQL Error:</b> 1054: Unknown column 'ErgoEnfr' in 'where clause'</span> in [/home/radeff/soft/cake/cake/libs/model/datasources/dbo_source.php, line 527]
2010-04-01 12:18:09 Warning: Warning (2): Invalid argument supplied for foreach() in [APP/views/ergo_enfrs/index.ctp, line 54]
2010-04-01 12:19:09 Warning: Warning (512): <span style = "color:Red;text-align:left"><b>SQL Error:</b> 1054: Unknown column 'ErgoEnfr' in 'where clause'</span> in [/home/radeff/soft/cake/cake/libs/model/datasources/dbo_source.php, line 527]
2010-04-01 12:19:09 Warning: Warning (2): Invalid argument supplied for foreach() in [APP/views/ergo_enfrs/index.ctp, line 54]
2010-04-01 12:19:09 Warning: Warning (512): <span style = "color:Red;text-align:left"><b>SQL Error:</b> 1054: Unknown column 'ErgoEnfr' in 'where clause'</span> in [/home/radeff/soft/cake/cake/libs/model/datasources/dbo_source.php, line 527]
2010-04-01 12:19:10 Warning: Warning (2): Invalid argument supplied for foreach() in [APP/views/ergo_enfrs/index.ctp, line 54]
2010-04-13 05:30:01 Warning: Warning (2): Cannot modify header information - headers already sent by (output started at /home/radeff/soft/cake/cake/basics.php:109) in [/home/radeff/soft/cake/cake/libs/controller/controller.php, line 647]
2010-04-13 05:30:53 Warning: Warning (2): Cannot modify header information - headers already sent by (output started at /var/www/ergolang/cake/app/controllers/ergo_rufrs_controller.php:113) in [/home/radeff/soft/cake/cake/libs/controller/controller.php, line 647]
2010-04-13 05:32:11 Warning: Warning (2): Cannot modify header information - headers already sent by (output started at /var/www/ergolang/cake/app/controllers/ergo_rufrs_controller.php:113) in [/home/radeff/soft/cake/cake/libs/controller/controller.php, line 647]
2010-04-13 05:54:15 Warning: Warning (2): mysql_result() [<a href='http://php.net/function.mysql-result'>function.mysql-result</a>]: Unable to jump to row 0 on MySQL result index 79 in [APP/views/ergo_motsassocies/index.ctp, line 46]
2010-04-13 05:55:51 Warning: Warning (2): Cannot modify header information - headers already sent by (output started at /var/www/ergolang/cake/app/controllers/ergo_rufrs_controller.php:122) in [/home/radeff/soft/cake/cake/libs/controller/controller.php, line 647]
2010-04-13 05:56:23 Warning: Warning (2): Cannot modify header information - headers already sent by (output started at /var/www/ergolang/cake/app/controllers/ergo_rufrs_controller.php:119) in [/home/radeff/soft/cake/cake/libs/controller/controller.php, line 647]
2010-04-13 05:57:28 Warning: Warning (2): Cannot modify header information - headers already sent by (output started at /var/www/ergolang/cake/app/controllers/ergo_rufrs_controller.php:119) in [/home/radeff/soft/cake/cake/libs/controller/controller.php, line 647]
2010-04-13 05:57:52 Warning: Warning (2): Cannot modify header information - headers already sent by (output started at /var/www/ergolang/cake/app/controllers/ergo_rufrs_controller.php:121) in [/home/radeff/soft/cake/cake/libs/controller/controller.php, line 647]
2010-04-13 06:05:25 Warning: Warning (2): Cannot modify header information - headers already sent by (output started at /home/radeff/soft/cake/cake/basics.php:109) in [/home/radeff/soft/cake/cake/libs/controller/controller.php, line 647]
2010-04-13 06:06:04 Warning: Warning (2): mysql_result() [<a href='http://php.net/function.mysql-result'>function.mysql-result</a>]: Unable to jump to row 0 on MySQL result index 141 in [APP/views/ergo_motsassocies/index.ctp, line 46]
2010-04-13 06:25:47 Warning: Warning (2): mysql_result() [<a href='http://php.net/function.mysql-result'>function.mysql-result</a>]: category_id  not found in MySQL result index 136 in [APP/views/ergo_rufrs/edit.ctp, line 35]
2010-04-16 15:59:57 Warning: Warning (2): Cannot modify header information - headers already sent by (output started at /var/www/ergolang/cake/app/models/behaviors/revision.php:992) in [/home/radeff/soft/cake/cake/libs/controller/controller.php, line 647]
2010-04-16 16:00:13 Warning: Warning (2): Cannot modify header information - headers already sent by (output started at /var/www/ergolang/cake/app/models/behaviors/revision.php:992) in [/home/radeff/soft/cake/cake/libs/controller/controller.php, line 647]
2010-04-16 16:02:27 Warning: Warning (2): Cannot modify header information - headers already sent by (output started at /var/www/ergolang/cake/app/models/behaviors/revision.php:992) in [/home/radeff/soft/cake/cake/libs/controller/controller.php, line 647]
2010-04-16 16:02:56 Warning: Warning (2): Cannot modify header information - headers already sent by (output started at /var/www/ergolang/cake/app/models/behaviors/revision.php:992) in [/home/radeff/soft/cake/cake/libs/controller/controller.php, line 647]
2010-04-16 16:05:08 Warning: Warning (2): Cannot modify header information - headers already sent by (output started at /var/www/ergolang/cake/app/models/behaviors/revision.php:992) in [/home/radeff/soft/cake/cake/libs/controller/controller.php, line 647]
2010-04-16 16:07:55 Warning: Warning (2): Cannot modify header information - headers already sent by (output started at /var/www/ergolang/cake/app/models/behaviors/revision.php:992) in [/home/radeff/soft/cake/cake/libs/controller/controller.php, line 647]
2010-04-16 16:09:51 Warning: Warning (2): Cannot modify header information - headers already sent by (output started at /var/www/ergolang/cake/app/models/behaviors/revision.php:992) in [/home/radeff/soft/cake/cake/libs/controller/controller.php, line 647]
2010-04-16 17:04:19 Warning: Warning (512): <span style = "color:Red;text-align:left"><b>SQL Error:</b> 1064: You have an error in your SQL syntax; check the manual that corresponds to your MySQL server version for the right syntax to use near 'generatetreelist' at line 1</span> in [/home/radeff/soft/cake/cake/libs/model/datasources/dbo_source.php, line 527]
2010-04-16 17:06:44 Warning: Warning (2): Cannot modify header information - headers already sent by (output started at /var/www/ergolang/cake/app/models/behaviors/revision.php:992) in [/home/radeff/soft/cake/cake/libs/controller/controller.php, line 647]
2010-04-16 17:11:10 Warning: Warning (2): Cannot modify header information - headers already sent by (output started at /var/www/ergolang/cake/app/models/behaviors/revision.php:992) in [/home/radeff/soft/cake/cake/libs/controller/controller.php, line 647]
2010-04-19 17:41:55 Warning: Warning (2): mysql_result() [<a href='http://php.net/function.mysql-result'>function.mysql-result</a>]: Unable to jump to row 0 on MySQL result index 137 in [APP/views/ergo_ru_grammaires/vue.ctp, line 24]
2010-04-19 17:41:55 Warning: Warning (2): mysql_result() [<a href='http://php.net/function.mysql-result'>function.mysql-result</a>]: Unable to jump to row 0 on MySQL result index 137 in [APP/views/ergo_ru_grammaires/vue.ctp, line 33]
2010-04-19 17:42:00 Warning: Warning (2): mysql_result() [<a href='http://php.net/function.mysql-result'>function.mysql-result</a>]: Unable to jump to row 0 on MySQL result index 134 in [APP/views/ergo_ru_grammaires/vue.ctp, line 24]
2010-04-19 17:42:00 Warning: Warning (2): mysql_result() [<a href='http://php.net/function.mysql-result'>function.mysql-result</a>]: Unable to jump to row 0 on MySQL result index 134 in [APP/views/ergo_ru_grammaires/vue.ctp, line 33]
2010-04-20 15:17:10 Warning: Warning (512): <span style = "color:Red;text-align:left"><b>SQL Error:</b> 1062: Duplicate entry 'radeff' for key 'username'</span> in [/home/radeff/soft/cake/cake/libs/model/datasources/dbo_source.php, line 527]
2010-04-20 15:17:10 Warning: Warning (2): Cannot modify header information - headers already sent by (output started at /home/radeff/soft/cake/cake/basics.php:109) in [/home/radeff/soft/cake/cake/libs/controller/controller.php, line 647]
2010-04-20 15:17:29 Warning: Warning (512): <span style = "color:Red;text-align:left"><b>SQL Error:</b> 1062: Duplicate entry 'radeff' for key 'username'</span> in [/home/radeff/soft/cake/cake/libs/model/datasources/dbo_source.php, line 527]
2010-04-20 15:17:29 Warning: Warning (2): Cannot modify header information - headers already sent by (output started at /home/radeff/soft/cake/cake/basics.php:109) in [/home/radeff/soft/cake/cake/libs/controller/controller.php, line 647]
2010-04-21 22:51:54 Warning: Warning (2): mysql_result() [<a href='http://php.net/function.mysql-result'>function.mysql-result</a>]: Unable to jump to row 0 on MySQL result index 80 in [APP/views/ergo_ru_grammaires/vue.ctp, line 24]
2010-04-21 22:51:54 Warning: Warning (2): mysql_result() [<a href='http://php.net/function.mysql-result'>function.mysql-result</a>]: Unable to jump to row 0 on MySQL result index 80 in [APP/views/ergo_ru_grammaires/vue.ctp, line 33]
2010-04-28 07:25:04 Warning: Warning (2): array_merge() [<a href='http://php.net/function.array-merge'>function.array-merge</a>]: Argument #2 is not an array in [/home/radeff/soft/cake/cake/libs/view/helpers/form.php, line 591]
2010-04-28 07:25:29 Warning: Warning (2): array_merge() [<a href='http://php.net/function.array-merge'>function.array-merge</a>]: Argument #2 is not an array in [/home/radeff/soft/cake/cake/libs/view/helpers/form.php, line 591]
2010-04-28 08:17:22 Warning: Warning (512): <span style = "color:Red;text-align:left"><b>SQL Error:</b> 1054: Unknown column 'ErgoCategoriesPost.ergo_category_id' in 'on clause'</span> in [/home/radeff/soft/cake/cake/libs/model/datasources/dbo_source.php, line 527]
2010-04-28 08:19:13 Warning: Warning (512): <span style = "color:Red;text-align:left"><b>SQL Error:</b> 1054: Unknown column 'ErgoCategoriesPost.ergo_category_id' in 'on clause'</span> in [/home/radeff/soft/cake/cake/libs/model/datasources/dbo_source.php, line 527]
2010-04-28 22:40:44 Warning: Warning (512): <span style = "color:Red;text-align:left"><b>SQL Error:</b> 1054: Unknown column 'ErgoCategoriesPost.ergo_category_id' in 'on clause'</span> in [/home/radeff/soft/cake/cake/libs/model/datasources/dbo_source.php, line 527]
2010-04-28 22:43:59 Warning: Warning (512): <span style = "color:Red;text-align:left"><b>SQL Error:</b> 1054: Unknown column 'ErgoCategoriesPost.ergo_category_id' in 'on clause'</span> in [/home/radeff/soft/cake/cake/libs/model/datasources/dbo_source.php, line 527]
2010-04-28 22:45:46 Warning: Warning (512): <span style = "color:Red;text-align:left"><b>SQL Error:</b> 1054: Unknown column 'ErgoCategoriesPost.ergo_category_id' in 'on clause'</span> in [/home/radeff/soft/cake/cake/libs/model/datasources/dbo_source.php, line 527]
2010-04-28 22:45:59 Warning: Warning (512): <span style = "color:Red;text-align:left"><b>SQL Error:</b> 1054: Unknown column 'ErgoCategoriesPost.ergo_category_id' in 'on clause'</span> in [/home/radeff/soft/cake/cake/libs/model/datasources/dbo_source.php, line 527]
2010-04-28 22:46:54 Warning: Warning (512): <span style = "color:Red;text-align:left"><b>SQL Error:</b> 1054: Unknown column 'ErgoCategoriesPost.ergo_category_id' in 'on clause'</span> in [/home/radeff/soft/cake/cake/libs/model/datasources/dbo_source.php, line 527]
2010-04-28 22:47:10 Warning: Warning (512): <span style = "color:Red;text-align:left"><b>SQL Error:</b> 1054: Unknown column 'ErgoCategoriesPost.ergo_category_id' in 'on clause'</span> in [/home/radeff/soft/cake/cake/libs/model/datasources/dbo_source.php, line 527]
2010-04-28 22:48:08 Warning: Warning (512): <span style = "color:Red;text-align:left"><b>SQL Error:</b> 1054: Unknown column 'ErgoCategoriesPost.ergo_category_id' in 'on clause'</span> in [/home/radeff/soft/cake/cake/libs/model/datasources/dbo_source.php, line 527]
2010-04-28 22:49:04 Warning: Warning (512): <span style = "color:Red;text-align:left"><b>SQL Error:</b> 1054: Unknown column 'ErgoCategoriesPost.ergo_category_id' in 'on clause'</span> in [/home/radeff/soft/cake/cake/libs/model/datasources/dbo_source.php, line 527]
2010-04-29 06:22:56 Warning: Warning (512): <span style = "color:Red;text-align:left"><b>SQL Error:</b> 1048: Column 'state' cannot be null</span> in [/home/radeff/soft/cake/cake/libs/model/datasources/dbo_source.php, line 527]
2010-04-29 06:24:08 Warning: Warning (512): <span style = "color:Red;text-align:left"><b>SQL Error:</b> 1048: Column 'state' cannot be null</span> in [/home/radeff/soft/cake/cake/libs/model/datasources/dbo_source.php, line 527]
2010-04-29 06:24:26 Warning: Warning (512): <span style = "color:Red;text-align:left"><b>SQL Error:</b> 1048: Column 'state' cannot be null</span> in [/home/radeff/soft/cake/cake/libs/model/datasources/dbo_source.php, line 527]
2010-04-29 06:24:38 Warning: Warning (512): <span style = "color:Red;text-align:left"><b>SQL Error:</b> 1048: Column 'created_by' cannot be null</span> in [/home/radeff/soft/cake/cake/libs/model/datasources/dbo_source.php, line 527]
2010-04-29 06:27:59 Warning: Warning (512): <span style = "color:Red;text-align:left"><b>SQL Error:</b> 1048: Column 'created_by' cannot be null</span> in [/home/radeff/soft/cake/cake/libs/model/datasources/dbo_source.php, line 527]
2010-04-29 06:33:53 Warning: Warning (2): Cannot modify header information - headers already sent by (output started at /home/radeff/soft/cake/cake/basics.php:109) in [/home/radeff/soft/cake/cake/libs/controller/controller.php, line 647]
2010-04-29 06:49:56 Warning: Warning (2): Cannot modify header information - headers already sent by (output started at /var/www/ergolang/cake/app/controllers/components/pagination.php:8) in [/home/radeff/soft/cake/cake/libs/controller/controller.php, line 647]
2010-04-29 06:50:00 Warning: Warning (2): Cannot modify header information - headers already sent by (output started at /var/www/ergolang/cake/app/controllers/components/pagination.php:8) in [/home/radeff/soft/cake/cake/libs/controller/controller.php, line 647]
2010-04-29 06:51:15 Warning: Warning (2): Cannot modify header information - headers already sent by (output started at /var/www/ergolang/cake/app/controllers/components/pagination.php:8) in [/home/radeff/soft/cake/cake/libs/controller/controller.php, line 647]
2010-04-29 06:51:36 Warning: Warning (2): Cannot modify header information - headers already sent by (output started at /var/www/ergolang/cake/app/controllers/components/pagination.php:8) in [/home/radeff/soft/cake/cake/libs/controller/controller.php, line 647]
2010-04-29 06:52:22 Warning: Warning (2): Cannot modify header information - headers already sent by (output started at /var/www/ergolang/cake/app/controllers/components/pagination.php:8) in [/home/radeff/soft/cake/cake/libs/controller/controller.php, line 647]
2010-04-29 06:52:42 Warning: Warning (2): Cannot modify header information - headers already sent by (output started at /var/www/ergolang/cake/app/controllers/components/pagination.php:8) in [/home/radeff/soft/cake/cake/libs/controller/controller.php, line 647]
2010-04-29 06:52:53 Warning: Warning (2): Cannot modify header information - headers already sent by (output started at /var/www/ergolang/cake/app/controllers/components/pagination.php:8) in [/home/radeff/soft/cake/cake/libs/controller/controller.php, line 647]
2010-04-30 06:18:26 Warning: Warning (512): <span style = "color:Red;text-align:left"><b>SQL Error:</b> 1054: Unknown column 'ErgoCategoriesPost.ergo_category_id' in 'on clause'</span> in [/home/radeff/soft/cake/cake/libs/model/datasources/dbo_source.php, line 527]
2010-04-30 13:43:18 Warning: Warning (512): <span style = "color:Red;text-align:left"><b>SQL Error:</b> 1054: Unknown column 'ErgoCategoriesPost.ergo_category_id' in 'on clause'</span> in [/home/radeff/soft/cake/cake/libs/model/datasources/dbo_source.php, line 527]
2010-04-30 13:43:32 Warning: Warning (512): <span style = "color:Red;text-align:left"><b>SQL Error:</b> 1054: Unknown column 'ErgoCategoriesPost.ergo_category_id' in 'on clause'</span> in [/home/radeff/soft/cake/cake/libs/model/datasources/dbo_source.php, line 527]
2010-04-30 13:43:44 Warning: Warning (512): <span style = "color:Red;text-align:left"><b>SQL Error:</b> 1054: Unknown column 'ErgoCategoriesPost.ergo_category_id' in 'on clause'</span> in [/home/radeff/soft/cake/cake/libs/model/datasources/dbo_source.php, line 527]
2010-04-30 13:44:12 Warning: Warning (512): <span style = "color:Red;text-align:left"><b>SQL Error:</b> 1054: Unknown column 'ErgoCategoriesPost.ergo_category_id' in 'on clause'</span> in [/home/radeff/soft/cake/cake/libs/model/datasources/dbo_source.php, line 527]
2010-04-30 13:44:16 Warning: Warning (512): <span style = "color:Red;text-align:left"><b>SQL Error:</b> 1054: Unknown column 'ErgoCategoriesPost.ergo_category_id' in 'on clause'</span> in [/home/radeff/soft/cake/cake/libs/model/datasources/dbo_source.php, line 527]
2010-04-30 13:44:27 Warning: Warning (512): <span style = "color:Red;text-align:left"><b>SQL Error:</b> 1054: Unknown column 'ErgoCategoriesPost.ergo_category_id' in 'on clause'</span> in [/home/radeff/soft/cake/cake/libs/model/datasources/dbo_source.php, line 527]
2010-04-30 13:44:34 Warning: Warning (512): <span style = "color:Red;text-align:left"><b>SQL Error:</b> 1054: Unknown column 'ErgoCategoriesPost.ergo_category_id' in 'on clause'</span> in [/home/radeff/soft/cake/cake/libs/model/datasources/dbo_source.php, line 527]
2010-04-30 13:44:48 Warning: Warning (512): <span style = "color:Red;text-align:left"><b>SQL Error:</b> 1054: Unknown column 'ErgoCategoriesPost.ergo_category_id' in 'on clause'</span> in [/home/radeff/soft/cake/cake/libs/model/datasources/dbo_source.php, line 527]
2010-04-30 13:44:55 Warning: Warning (512): <span style = "color:Red;text-align:left"><b>SQL Error:</b> 1054: Unknown column 'ErgoCategoriesPost.ergo_category_id' in 'on clause'</span> in [/home/radeff/soft/cake/cake/libs/model/datasources/dbo_source.php, line 527]
2010-04-30 13:45:06 Warning: Warning (512): <span style = "color:Red;text-align:left"><b>SQL Error:</b> 1054: Unknown column 'ErgoCategoriesPost.ergo_category_id' in 'field list'</span> in [/home/radeff/soft/cake/cake/libs/model/datasources/dbo_source.php, line 527]
2010-04-30 13:45:06 Warning: Warning (512): <span style = "color:Red;text-align:left"><b>SQL Error:</b> 1054: Unknown column 'ergo_category_id' in 'field list'</span> in [/home/radeff/soft/cake/cake/libs/model/datasources/dbo_source.php, line 527]
2010-04-30 13:45:06 Warning: Warning (2): Cannot modify header information - headers already sent by (output started at /home/radeff/soft/cake/cake/basics.php:109) in [/home/radeff/soft/cake/cake/libs/controller/controller.php, line 647]
2010-04-30 13:46:01 Warning: Warning (512): <span style = "color:Red;text-align:left"><b>SQL Error:</b> 1054: Unknown column 'ErgoCategoriesPost.ergo_category_id' in 'on clause'</span> in [/home/radeff/soft/cake/cake/libs/model/datasources/dbo_source.php, line 527]
2010-04-30 13:46:11 Warning: Warning (512): <span style = "color:Red;text-align:left"><b>SQL Error:</b> 1054: Unknown column 'ErgoCategoriesPost.ergo_category_id' in 'on clause'</span> in [/home/radeff/soft/cake/cake/libs/model/datasources/dbo_source.php, line 527]
2010-04-30 13:51:13 Warning: Warning (512): <span style = "color:Red;text-align:left"><b>SQL Error:</b> 1054: Unknown column 'ErgoCategoriesPost.ergo_category_id' in 'on clause'</span> in [/home/radeff/soft/cake/cake/libs/model/datasources/dbo_source.php, line 527]
